-- Merging decision tree log ---
manifest
ADDED from /Users/vipin/Desktop/flutter_learn/android/app/src/main/AndroidManifest.xml:1:1-35:12
INJECTED from /Users/vipin/Desktop/flutter_learn/android/app/src/main/AndroidManifest.xml:1:1-35:12
INJECTED from /Users/vipin/Desktop/flutter_learn/android/app/src/main/AndroidManifest.xml:1:1-35:12
INJECTED from /Users/vipin/Desktop/flutter_learn/android/app/src/main/AndroidManifest.xml:1:1-35:12
MERGED from /Users/vipin/Desktop/flutter_learn/android/app/src/main/AndroidManifest.xml:1:1-35:12
MERGED from [:stripe_payment] /Users/vipin/Desktop/flutter_learn/build/stripe_payment/intermediates/library_manifest/debug/AndroidManifest.xml:2:1-37:12
MERGED from [androidx.multidex:multidex:2.0.0] /Users/vipin/.gradle/caches/transforms-2/files-2.1/f8842042129f0e38beaacb1513478e0d/multidex-2.0.0/AndroidManifest.xml:17:1-22:12
MERGED from [com.stripe:stripe-android:10.4.6] /Users/vipin/.gradle/caches/transforms-2/files-2.1/d3489a11b37f27d876ab42ce66142190/jetified-stripe-android-10.4.6/AndroidManifest.xml:2:1-29:12
MERGED from [com.stripe:stripe-3ds2-android:1.2.2] /Users/vipin/.gradle/caches/transforms-2/files-2.1/927fe1aa15fe553a42c71406e1f2654d/jetified-stripe-3ds2-android-1.2.2/AndroidManifest.xml:2:1-20:12
MERGED from [com.google.android.gms:play-services-wallet:18.0.0] /Users/vipin/.gradle/caches/transforms-2/files-2.1/1c4de7705689bf510e25a51dbbe6baa0/play-services-wallet-18.0.0/AndroidManifest.xml:17:1-22:12
MERGED from [com.google.android.material:material:1.0.0] /Users/vipin/.gradle/caches/transforms-2/files-2.1/0e4a59112a771bca276f0eff4b2b2b3a/material-1.0.0/AndroidManifest.xml:17:1-24:12
MERGED from [androidx.appcompat:appcompat:1.0.0] /Users/vipin/.gradle/caches/transforms-2/files-2.1/5b1d5d1639c10ea69eb216b8923da246/appcompat-1.0.0/AndroidManifest.xml:17:1-22:12
MERGED from [com.google.android.gms:play-services-identity:17.0.0] /Users/vipin/.gradle/caches/transforms-2/files-2.1/d0d5af3c67f49b2de178281f6ac0547d/play-services-identity-17.0.0/AndroidManifest.xml:17:1-24:12
MERGED from [com.google.android.gms:play-services-maps:17.0.0] /Users/vipin/.gradle/caches/transforms-2/files-2.1/3222ebe8836b17d01ef99448d34abe13/play-services-maps-17.0.0/AndroidManifest.xml:17:1-38:12
MERGED from [com.google.android.gms:play-services-base:17.0.0] /Users/vipin/.gradle/caches/transforms-2/files-2.1/0425523a70139e6e81278079e95f0525/play-services-base-17.0.0/AndroidManifest.xml:17:1-29:12
MERGED from [com.google.android.gms:play-services-tasks:17.0.0] /Users/vipin/.gradle/caches/transforms-2/files-2.1/917f9d53c08ec1e7e0f520fc53c5f652/play-services-tasks-17.0.0/AndroidManifest.xml:2:1-9:12
MERGED from [com.google.android.gms:play-services-basement:17.0.0] /Users/vipin/.gradle/caches/transforms-2/files-2.1/3b683f24432fc6c472db00a16e4befbb/jetified-play-services-basement-17.0.0/AndroidManifest.xml:17:1-28:12
MERGED from [androidx.legacy:legacy-support-v4:1.0.0] /Users/vipin/.gradle/caches/transforms-2/files-2.1/b08bc2c1dc9121ce972ee56dfb0cf4f0/legacy-support-v4-1.0.0/AndroidManifest.xml:17:1-22:12
MERGED from [androidx.fragment:fragment:1.0.0] /Users/vipin/.gradle/caches/transforms-2/files-2.1/91d2261cd7206c2170decc31a2c3c137/fragment-1.0.0/AndroidManifest.xml:17:1-22:12
MERGED from [androidx.recyclerview:recyclerview:1.0.0] /Users/vipin/.gradle/caches/transforms-2/files-2.1/719720f73c43e85d7da62a929b85ecea/recyclerview-1.0.0/AndroidManifest.xml:17:1-22:12
MERGED from [androidx.vectordrawable:vectordrawable-animated:1.0.0] /Users/vipin/.gradle/caches/transforms-2/files-2.1/0e5457eff3039fee4ccaf21f42bbfc8c/vectordrawable-animated-1.0.0/AndroidManifest.xml:17:1-22:12
MERGED from [androidx.legacy:legacy-support-core-ui:1.0.0] /Users/vipin/.gradle/caches/transforms-2/files-2.1/11bd41b69bbf33adc1e725cc59643ce4/legacy-support-core-ui-1.0.0/AndroidManifest.xml:17:1-22:12
MERGED from [androidx.legacy:legacy-support-core-utils:1.0.0] /Users/vipin/.gradle/caches/transforms-2/files-2.1/335b3e69bc1b86ada2f51e9adf0379ba/legacy-support-core-utils-1.0.0/AndroidManifest.xml:17:1-22:12
MERGED from [androidx.loader:loader:1.0.0] /Users/vipin/.gradle/caches/transforms-2/files-2.1/be9967b848a2ba6d0c9ffe8c67000d6d/loader-1.0.0/AndroidManifest.xml:17:1-22:12
MERGED from [androidx.viewpager:viewpager:1.0.0] /Users/vipin/.gradle/caches/transforms-2/files-2.1/60a8c29995d7a1e286def513defcc189/viewpager-1.0.0/AndroidManifest.xml:17:1-22:12
MERGED from [androidx.coordinatorlayout:coordinatorlayout:1.0.0] /Users/vipin/.gradle/caches/transforms-2/files-2.1/89a138fc971a56f9b402d88b51c7e8bf/coordinatorlayout-1.0.0/AndroidManifest.xml:17:1-22:12
MERGED from [androidx.drawerlayout:drawerlayout:1.0.0] /Users/vipin/.gradle/caches/transforms-2/files-2.1/4c8c712ad9bc15baa3e528ebdb830be2/drawerlayout-1.0.0/AndroidManifest.xml:17:1-22:12
MERGED from [androidx.slidingpanelayout:slidingpanelayout:1.0.0] /Users/vipin/.gradle/caches/transforms-2/files-2.1/4a0c3485acb618ce7da23832b1302029/slidingpanelayout-1.0.0/AndroidManifest.xml:17:1-22:12
MERGED from [androidx.customview:customview:1.0.0] /Users/vipin/.gradle/caches/transforms-2/files-2.1/2f3f6c49b90c06ec1965670404c2bae1/customview-1.0.0/AndroidManifest.xml:17:1-22:12
MERGED from [androidx.swiperefreshlayout:swiperefreshlayout:1.0.0] /Users/vipin/.gradle/caches/transforms-2/files-2.1/d4d6006d6dd91185b52b08514ee9b98d/swiperefreshlayout-1.0.0/AndroidManifest.xml:17:1-22:12
MERGED from [androidx.asynclayoutinflater:asynclayoutinflater:1.0.0] /Users/vipin/.gradle/caches/transforms-2/files-2.1/0daf220a0b0eff5a55113c42c9c09e76/asynclayoutinflater-1.0.0/AndroidManifest.xml:17:1-22:12
MERGED from [androidx.transition:transition:1.0.0] /Users/vipin/.gradle/caches/transforms-2/files-2.1/c8165a6bff3859a1c1b87abf81bcf9a5/transition-1.0.0/AndroidManifest.xml:17:1-22:12
MERGED from [androidx.vectordrawable:vectordrawable:1.0.0] /Users/vipin/.gradle/caches/transforms-2/files-2.1/6feac16ea6508d2f01adb42b80340360/vectordrawable-1.0.0/AndroidManifest.xml:17:1-22:12
MERGED from [androidx.media:media:1.0.0] /Users/vipin/.gradle/caches/transforms-2/files-2.1/0e4e94f66a09c9d058953ba46ddb0c9b/media-1.0.0/AndroidManifest.xml:17:1-22:12
MERGED from [androidx.core:core:1.0.0] /Users/vipin/.gradle/caches/transforms-2/files-2.1/2aa311dc82ea7647370b147229745494/core-1.0.0/AndroidManifest.xml:17:1-24:12
MERGED from [androidx.lifecycle:lifecycle-runtime:2.0.0] /Users/vipin/.gradle/caches/transforms-2/files-2.1/859953c146c614d0931c571aa4c22726/lifecycle-runtime-2.0.0/AndroidManifest.xml:17:1-22:12
MERGED from [androidx.lifecycle:lifecycle-livedata:2.0.0] /Users/vipin/.gradle/caches/transforms-2/files-2.1/d2cb8c0b46c5eeeba4aeb3bfc4043dfb/lifecycle-livedata-2.0.0/AndroidManifest.xml:17:1-22:12
MERGED from [androidx.lifecycle:lifecycle-livedata-core:2.0.0] /Users/vipin/.gradle/caches/transforms-2/files-2.1/ed4d6d2218e14061c45322b12c010072/lifecycle-livedata-core-2.0.0/AndroidManifest.xml:17:1-22:12
MERGED from [androidx.arch.core:core-runtime:2.0.0] /Users/vipin/.gradle/caches/transforms-2/files-2.1/eaf03eb38c93eb768a9e57d424e351e5/core-runtime-2.0.0/AndroidManifest.xml:17:1-22:12
MERGED from [androidx.lifecycle:lifecycle-viewmodel:2.0.0] /Users/vipin/.gradle/caches/transforms-2/files-2.1/b51d234b0c3817c7a6ea458063046cb3/lifecycle-viewmodel-2.0.0/AndroidManifest.xml:17:1-22:12
MERGED from [androidx.versionedparcelable:versionedparcelable:1.0.0] /Users/vipin/.gradle/caches/transforms-2/files-2.1/76176ccfd8049821e053c8a3a177985d/versionedparcelable-1.0.0/AndroidManifest.xml:17:1-25:12
MERGED from [androidx.interpolator:interpolator:1.0.0] /Users/vipin/.gradle/caches/transforms-2/files-2.1/83f2d6c1f6c7fbe04662fdfc840f16c9/interpolator-1.0.0/AndroidManifest.xml:17:1-22:12
MERGED from [androidx.cursoradapter:cursoradapter:1.0.0] /Users/vipin/.gradle/caches/transforms-2/files-2.1/ff47048877db12bd271c96d7e9087138/cursoradapter-1.0.0/AndroidManifest.xml:17:1-22:12
MERGED from [androidx.documentfile:documentfile:1.0.0] /Users/vipin/.gradle/caches/transforms-2/files-2.1/5855efd38be8431bbd879efa7618a00c/documentfile-1.0.0/AndroidManifest.xml:17:1-22:12
MERGED from [androidx.localbroadcastmanager:localbroadcastmanager:1.0.0] /Users/vipin/.gradle/caches/transforms-2/files-2.1/8dc0cff161db3c3e6bfc27bcf3557414/localbroadcastmanager-1.0.0/AndroidManifest.xml:17:1-22:12
MERGED from [androidx.print:print:1.0.0] /Users/vipin/.gradle/caches/transforms-2/files-2.1/32d0c7709c6fc4ea4aeee5a301769a1c/print-1.0.0/AndroidManifest.xml:17:1-22:12
MERGED from [androidx.cardview:cardview:1.0.0] /Users/vipin/.gradle/caches/transforms-2/files-2.1/c52fde5cb7ba62eb3a53f6539b099bc7/cardview-1.0.0/AndroidManifest.xml:17:1-22:12
INJECTED from /Users/vipin/Desktop/flutter_learn/android/app/src/debug/AndroidManifest.xml:1:1-7:12
INJECTED from /Users/vipin/Desktop/flutter_learn/android/app/src/debug/AndroidManifest.xml:1:1-7:12
INJECTED from /Users/vipin/Desktop/flutter_learn/android/app/src/debug/AndroidManifest.xml:1:1-7:12
	package
		ADDED from /Users/vipin/Desktop/flutter_learn/android/app/src/main/AndroidManifest.xml:3:5-40
		INJECTED from /Users/vipin/Desktop/flutter_learn/android/app/src/main/AndroidManifest.xml
		INJECTED from /Users/vipin/Desktop/flutter_learn/android/app/src/debug/AndroidManifest.xml
	android:versionName
		INJECTED from /Users/vipin/Desktop/flutter_learn/android/app/src/main/AndroidManifest.xml
		ADDED from /Users/vipin/Desktop/flutter_learn/android/app/src/main/AndroidManifest.xml:1:1-35:12
		INJECTED from /Users/vipin/Desktop/flutter_learn/android/app/src/debug/AndroidManifest.xml
	xmlns:tools
		ADDED from /Users/vipin/Desktop/flutter_learn/android/app/src/main/AndroidManifest.xml:2:5-51
		ADDED from /Users/vipin/Desktop/flutter_learn/android/app/src/main/AndroidManifest.xml:2:5-51
	android:versionCode
		INJECTED from /Users/vipin/Desktop/flutter_learn/android/app/src/main/AndroidManifest.xml
		ADDED from /Users/vipin/Desktop/flutter_learn/android/app/src/main/AndroidManifest.xml:1:1-35:12
		INJECTED from /Users/vipin/Desktop/flutter_learn/android/app/src/debug/AndroidManifest.xml
	xmlns:android
		ADDED from /Users/vipin/Desktop/flutter_learn/android/app/src/main/AndroidManifest.xml:1:11-69
application
ADDED from /Users/vipin/Desktop/flutter_learn/android/app/src/main/AndroidManifest.xml:10:5-34:19
MERGED from [:stripe_payment] /Users/vipin/Desktop/flutter_learn/build/stripe_payment/intermediates/library_manifest/debug/AndroidManifest.xml:11:5-35:19
MERGED from [:stripe_payment] /Users/vipin/Desktop/flutter_learn/build/stripe_payment/intermediates/library_manifest/debug/AndroidManifest.xml:11:5-35:19
MERGED from [com.stripe:stripe-android:10.4.6] /Users/vipin/.gradle/caches/transforms-2/files-2.1/d3489a11b37f27d876ab42ce66142190/jetified-stripe-android-10.4.6/AndroidManifest.xml:11:5-27:19
MERGED from [com.stripe:stripe-android:10.4.6] /Users/vipin/.gradle/caches/transforms-2/files-2.1/d3489a11b37f27d876ab42ce66142190/jetified-stripe-android-10.4.6/AndroidManifest.xml:11:5-27:19
MERGED from [com.stripe:stripe-3ds2-android:1.2.2] /Users/vipin/.gradle/caches/transforms-2/files-2.1/927fe1aa15fe553a42c71406e1f2654d/jetified-stripe-3ds2-android-1.2.2/AndroidManifest.xml:11:5-18:19
MERGED from [com.stripe:stripe-3ds2-android:1.2.2] /Users/vipin/.gradle/caches/transforms-2/files-2.1/927fe1aa15fe553a42c71406e1f2654d/jetified-stripe-3ds2-android-1.2.2/AndroidManifest.xml:11:5-18:19
MERGED from [com.google.android.material:material:1.0.0] /Users/vipin/.gradle/caches/transforms-2/files-2.1/0e4a59112a771bca276f0eff4b2b2b3a/material-1.0.0/AndroidManifest.xml:22:5-20
MERGED from [com.google.android.material:material:1.0.0] /Users/vipin/.gradle/caches/transforms-2/files-2.1/0e4a59112a771bca276f0eff4b2b2b3a/material-1.0.0/AndroidManifest.xml:22:5-20
MERGED from [com.google.android.gms:play-services-identity:17.0.0] /Users/vipin/.gradle/caches/transforms-2/files-2.1/d0d5af3c67f49b2de178281f6ac0547d/play-services-identity-17.0.0/AndroidManifest.xml:22:5-20
MERGED from [com.google.android.gms:play-services-identity:17.0.0] /Users/vipin/.gradle/caches/transforms-2/files-2.1/d0d5af3c67f49b2de178281f6ac0547d/play-services-identity-17.0.0/AndroidManifest.xml:22:5-20
MERGED from [com.google.android.gms:play-services-maps:17.0.0] /Users/vipin/.gradle/caches/transforms-2/files-2.1/3222ebe8836b17d01ef99448d34abe13/play-services-maps-17.0.0/AndroidManifest.xml:30:5-36:19
MERGED from [com.google.android.gms:play-services-maps:17.0.0] /Users/vipin/.gradle/caches/transforms-2/files-2.1/3222ebe8836b17d01ef99448d34abe13/play-services-maps-17.0.0/AndroidManifest.xml:30:5-36:19
MERGED from [com.google.android.gms:play-services-base:17.0.0] /Users/vipin/.gradle/caches/transforms-2/files-2.1/0425523a70139e6e81278079e95f0525/play-services-base-17.0.0/AndroidManifest.xml:22:5-27:19
MERGED from [com.google.android.gms:play-services-base:17.0.0] /Users/vipin/.gradle/caches/transforms-2/files-2.1/0425523a70139e6e81278079e95f0525/play-services-base-17.0.0/AndroidManifest.xml:22:5-27:19
MERGED from [com.google.android.gms:play-services-tasks:17.0.0] /Users/vipin/.gradle/caches/transforms-2/files-2.1/917f9d53c08ec1e7e0f520fc53c5f652/play-services-tasks-17.0.0/AndroidManifest.xml:7:5-20
MERGED from [com.google.android.gms:play-services-tasks:17.0.0] /Users/vipin/.gradle/caches/transforms-2/files-2.1/917f9d53c08ec1e7e0f520fc53c5f652/play-services-tasks-17.0.0/AndroidManifest.xml:7:5-20
MERGED from [com.google.android.gms:play-services-basement:17.0.0] /Users/vipin/.gradle/caches/transforms-2/files-2.1/3b683f24432fc6c472db00a16e4befbb/jetified-play-services-basement-17.0.0/AndroidManifest.xml:22:5-26:19
MERGED from [com.google.android.gms:play-services-basement:17.0.0] /Users/vipin/.gradle/caches/transforms-2/files-2.1/3b683f24432fc6c472db00a16e4befbb/jetified-play-services-basement-17.0.0/AndroidManifest.xml:22:5-26:19
MERGED from [androidx.core:core:1.0.0] /Users/vipin/.gradle/caches/transforms-2/files-2.1/2aa311dc82ea7647370b147229745494/core-1.0.0/AndroidManifest.xml:22:5-89
MERGED from [androidx.core:core:1.0.0] /Users/vipin/.gradle/caches/transforms-2/files-2.1/2aa311dc82ea7647370b147229745494/core-1.0.0/AndroidManifest.xml:22:5-89
MERGED from [androidx.versionedparcelable:versionedparcelable:1.0.0] /Users/vipin/.gradle/caches/transforms-2/files-2.1/76176ccfd8049821e053c8a3a177985d/versionedparcelable-1.0.0/AndroidManifest.xml:22:5-23:19
MERGED from [androidx.versionedparcelable:versionedparcelable:1.0.0] /Users/vipin/.gradle/caches/transforms-2/files-2.1/76176ccfd8049821e053c8a3a177985d/versionedparcelable-1.0.0/AndroidManifest.xml:22:5-23:19
	android:appComponentFactory
		ADDED from [androidx.core:core:1.0.0] /Users/vipin/.gradle/caches/transforms-2/files-2.1/2aa311dc82ea7647370b147229745494/core-1.0.0/AndroidManifest.xml:22:18-86
	android:label
		ADDED from /Users/vipin/Desktop/flutter_learn/android/app/src/main/AndroidManifest.xml:12:9-38
	android:icon
		ADDED from /Users/vipin/Desktop/flutter_learn/android/app/src/main/AndroidManifest.xml:14:9-43
	android:theme
		ADDED from [:stripe_payment] /Users/vipin/Desktop/flutter_learn/build/stripe_payment/intermediates/library_manifest/debug/AndroidManifest.xml:11:18-74
	android:name
		ADDED from /Users/vipin/Desktop/flutter_learn/android/app/src/main/AndroidManifest.xml:11:9-57
activity#com.example.flutter_learn.MainActivity
ADDED from /Users/vipin/Desktop/flutter_learn/android/app/src/main/AndroidManifest.xml:15:9-33:20
	android:launchMode
		ADDED from /Users/vipin/Desktop/flutter_learn/android/app/src/main/AndroidManifest.xml:17:13-43
	android:hardwareAccelerated
		ADDED from /Users/vipin/Desktop/flutter_learn/android/app/src/main/AndroidManifest.xml:20:13-47
	android:windowSoftInputMode
		ADDED from /Users/vipin/Desktop/flutter_learn/android/app/src/main/AndroidManifest.xml:21:13-55
	android:configChanges
		ADDED from /Users/vipin/Desktop/flutter_learn/android/app/src/main/AndroidManifest.xml:19:13-144
	android:theme
		ADDED from /Users/vipin/Desktop/flutter_learn/android/app/src/main/AndroidManifest.xml:18:13-47
	android:name
		ADDED from /Users/vipin/Desktop/flutter_learn/android/app/src/main/AndroidManifest.xml:16:13-41
meta-data#io.flutter.app.android.SplashScreenUntilFirstFrame
ADDED from /Users/vipin/Desktop/flutter_learn/android/app/src/main/AndroidManifest.xml:26:13-28:40
	android:value
		ADDED from /Users/vipin/Desktop/flutter_learn/android/app/src/main/AndroidManifest.xml:28:17-37
	android:name
		ADDED from /Users/vipin/Desktop/flutter_learn/android/app/src/main/AndroidManifest.xml:27:17-82
intent-filter#action:name:android.intent.action.MAIN+category:name:android.intent.category.LAUNCHER
ADDED from /Users/vipin/Desktop/flutter_learn/android/app/src/main/AndroidManifest.xml:29:13-32:29
action#android.intent.action.MAIN
ADDED from /Users/vipin/Desktop/flutter_learn/android/app/src/main/AndroidManifest.xml:30:17-68
	android:name
		ADDED from /Users/vipin/Desktop/flutter_learn/android/app/src/main/AndroidManifest.xml:30:25-66
category#android.intent.category.LAUNCHER
ADDED from /Users/vipin/Desktop/flutter_learn/android/app/src/main/AndroidManifest.xml:31:17-76
	android:name
		ADDED from /Users/vipin/Desktop/flutter_learn/android/app/src/main/AndroidManifest.xml:31:27-74
uses-sdk
INJECTED from /Users/vipin/Desktop/flutter_learn/android/app/src/main/AndroidManifest.xml reason: use-sdk injection requested
INJECTED from /Users/vipin/Desktop/flutter_learn/android/app/src/main/AndroidManifest.xml
INJECTED from /Users/vipin/Desktop/flutter_learn/android/app/src/main/AndroidManifest.xml
MERGED from [:stripe_payment] /Users/vipin/Desktop/flutter_learn/build/stripe_payment/intermediates/library_manifest/debug/AndroidManifest.xml:7:5-9:41
MERGED from [:stripe_payment] /Users/vipin/Desktop/flutter_learn/build/stripe_payment/intermediates/library_manifest/debug/AndroidManifest.xml:7:5-9:41
MERGED from [androidx.multidex:multidex:2.0.0] /Users/vipin/.gradle/caches/transforms-2/files-2.1/f8842042129f0e38beaacb1513478e0d/multidex-2.0.0/AndroidManifest.xml:20:5-43
MERGED from [androidx.multidex:multidex:2.0.0] /Users/vipin/.gradle/caches/transforms-2/files-2.1/f8842042129f0e38beaacb1513478e0d/multidex-2.0.0/AndroidManifest.xml:20:5-43
MERGED from [com.stripe:stripe-android:10.4.6] /Users/vipin/.gradle/caches/transforms-2/files-2.1/d3489a11b37f27d876ab42ce66142190/jetified-stripe-android-10.4.6/AndroidManifest.xml:7:5-9:41
MERGED from [com.stripe:stripe-android:10.4.6] /Users/vipin/.gradle/caches/transforms-2/files-2.1/d3489a11b37f27d876ab42ce66142190/jetified-stripe-android-10.4.6/AndroidManifest.xml:7:5-9:41
MERGED from [com.stripe:stripe-3ds2-android:1.2.2] /Users/vipin/.gradle/caches/transforms-2/files-2.1/927fe1aa15fe553a42c71406e1f2654d/jetified-stripe-3ds2-android-1.2.2/AndroidManifest.xml:7:5-9:41
MERGED from [com.stripe:stripe-3ds2-android:1.2.2] /Users/vipin/.gradle/caches/transforms-2/files-2.1/927fe1aa15fe553a42c71406e1f2654d/jetified-stripe-3ds2-android-1.2.2/AndroidManifest.xml:7:5-9:41
MERGED from [com.google.android.gms:play-services-wallet:18.0.0] /Users/vipin/.gradle/caches/transforms-2/files-2.1/1c4de7705689bf510e25a51dbbe6baa0/play-services-wallet-18.0.0/AndroidManifest.xml:20:5-44
MERGED from [com.google.android.gms:play-services-wallet:18.0.0] /Users/vipin/.gradle/caches/transforms-2/files-2.1/1c4de7705689bf510e25a51dbbe6baa0/play-services-wallet-18.0.0/AndroidManifest.xml:20:5-44
MERGED from [com.google.android.material:material:1.0.0] /Users/vipin/.gradle/caches/transforms-2/files-2.1/0e4a59112a771bca276f0eff4b2b2b3a/material-1.0.0/AndroidManifest.xml:20:5-44
MERGED from [com.google.android.material:material:1.0.0] /Users/vipin/.gradle/caches/transforms-2/files-2.1/0e4a59112a771bca276f0eff4b2b2b3a/material-1.0.0/AndroidManifest.xml:20:5-44
MERGED from [androidx.appcompat:appcompat:1.0.0] /Users/vipin/.gradle/caches/transforms-2/files-2.1/5b1d5d1639c10ea69eb216b8923da246/appcompat-1.0.0/AndroidManifest.xml:20:5-44
MERGED from [androidx.appcompat:appcompat:1.0.0] /Users/vipin/.gradle/caches/transforms-2/files-2.1/5b1d5d1639c10ea69eb216b8923da246/appcompat-1.0.0/AndroidManifest.xml:20:5-44
MERGED from [com.google.android.gms:play-services-identity:17.0.0] /Users/vipin/.gradle/caches/transforms-2/files-2.1/d0d5af3c67f49b2de178281f6ac0547d/play-services-identity-17.0.0/AndroidManifest.xml:20:5-44
MERGED from [com.google.android.gms:play-services-identity:17.0.0] /Users/vipin/.gradle/caches/transforms-2/files-2.1/d0d5af3c67f49b2de178281f6ac0547d/play-services-identity-17.0.0/AndroidManifest.xml:20:5-44
MERGED from [com.google.android.gms:play-services-maps:17.0.0] /Users/vipin/.gradle/caches/transforms-2/files-2.1/3222ebe8836b17d01ef99448d34abe13/play-services-maps-17.0.0/AndroidManifest.xml:20:5-44
MERGED from [com.google.android.gms:play-services-maps:17.0.0] /Users/vipin/.gradle/caches/transforms-2/files-2.1/3222ebe8836b17d01ef99448d34abe13/play-services-maps-17.0.0/AndroidManifest.xml:20:5-44
MERGED from [com.google.android.gms:play-services-base:17.0.0] /Users/vipin/.gradle/caches/transforms-2/files-2.1/0425523a70139e6e81278079e95f0525/play-services-base-17.0.0/AndroidManifest.xml:20:5-44
MERGED from [com.google.android.gms:play-services-base:17.0.0] /Users/vipin/.gradle/caches/transforms-2/files-2.1/0425523a70139e6e81278079e95f0525/play-services-base-17.0.0/AndroidManifest.xml:20:5-44
MERGED from [com.google.android.gms:play-services-tasks:17.0.0] /Users/vipin/.gradle/caches/transforms-2/files-2.1/917f9d53c08ec1e7e0f520fc53c5f652/play-services-tasks-17.0.0/AndroidManifest.xml:5:5-44
MERGED from [com.google.android.gms:play-services-tasks:17.0.0] /Users/vipin/.gradle/caches/transforms-2/files-2.1/917f9d53c08ec1e7e0f520fc53c5f652/play-services-tasks-17.0.0/AndroidManifest.xml:5:5-44
MERGED from [com.google.android.gms:play-services-basement:17.0.0] /Users/vipin/.gradle/caches/transforms-2/files-2.1/3b683f24432fc6c472db00a16e4befbb/jetified-play-services-basement-17.0.0/AndroidManifest.xml:20:5-44
MERGED from [com.google.android.gms:play-services-basement:17.0.0] /Users/vipin/.gradle/caches/transforms-2/files-2.1/3b683f24432fc6c472db00a16e4befbb/jetified-play-services-basement-17.0.0/AndroidManifest.xml:20:5-44
MERGED from [androidx.legacy:legacy-support-v4:1.0.0] /Users/vipin/.gradle/caches/transforms-2/files-2.1/b08bc2c1dc9121ce972ee56dfb0cf4f0/legacy-support-v4-1.0.0/AndroidManifest.xml:20:5-44
MERGED from [androidx.legacy:legacy-support-v4:1.0.0] /Users/vipin/.gradle/caches/transforms-2/files-2.1/b08bc2c1dc9121ce972ee56dfb0cf4f0/legacy-support-v4-1.0.0/AndroidManifest.xml:20:5-44
MERGED from [androidx.fragment:fragment:1.0.0] /Users/vipin/.gradle/caches/transforms-2/files-2.1/91d2261cd7206c2170decc31a2c3c137/fragment-1.0.0/AndroidManifest.xml:20:5-44
MERGED from [androidx.fragment:fragment:1.0.0] /Users/vipin/.gradle/caches/transforms-2/files-2.1/91d2261cd7206c2170decc31a2c3c137/fragment-1.0.0/AndroidManifest.xml:20:5-44
MERGED from [androidx.recyclerview:recyclerview:1.0.0] /Users/vipin/.gradle/caches/transforms-2/files-2.1/719720f73c43e85d7da62a929b85ecea/recyclerview-1.0.0/AndroidManifest.xml:20:5-44
MERGED from [androidx.recyclerview:recyclerview:1.0.0] /Users/vipin/.gradle/caches/transforms-2/files-2.1/719720f73c43e85d7da62a929b85ecea/recyclerview-1.0.0/AndroidManifest.xml:20:5-44
MERGED from [androidx.vectordrawable:vectordrawable-animated:1.0.0] /Users/vipin/.gradle/caches/transforms-2/files-2.1/0e5457eff3039fee4ccaf21f42bbfc8c/vectordrawable-animated-1.0.0/AndroidManifest.xml:20:5-44
MERGED from [androidx.vectordrawable:vectordrawable-animated:1.0.0] /Users/vipin/.gradle/caches/transforms-2/files-2.1/0e5457eff3039fee4ccaf21f42bbfc8c/vectordrawable-animated-1.0.0/AndroidManifest.xml:20:5-44
MERGED from [androidx.legacy:legacy-support-core-ui:1.0.0] /Users/vipin/.gradle/caches/transforms-2/files-2.1/11bd41b69bbf33adc1e725cc59643ce4/legacy-support-core-ui-1.0.0/AndroidManifest.xml:20:5-44
MERGED from [androidx.legacy:legacy-support-core-ui:1.0.0] /Users/vipin/.gradle/caches/transforms-2/files-2.1/11bd41b69bbf33adc1e725cc59643ce4/legacy-support-core-ui-1.0.0/AndroidManifest.xml:20:5-44
MERGED from [androidx.legacy:legacy-support-core-utils:1.0.0] /Users/vipin/.gradle/caches/transforms-2/files-2.1/335b3e69bc1b86ada2f51e9adf0379ba/legacy-support-core-utils-1.0.0/AndroidManifest.xml:20:5-44
MERGED from [androidx.legacy:legacy-support-core-utils:1.0.0] /Users/vipin/.gradle/caches/transforms-2/files-2.1/335b3e69bc1b86ada2f51e9adf0379ba/legacy-support-core-utils-1.0.0/AndroidManifest.xml:20:5-44
MERGED from [androidx.loader:loader:1.0.0] /Users/vipin/.gradle/caches/transforms-2/files-2.1/be9967b848a2ba6d0c9ffe8c67000d6d/loader-1.0.0/AndroidManifest.xml:20:5-44
MERGED from [androidx.loader:loader:1.0.0] /Users/vipin/.gradle/caches/transforms-2/files-2.1/be9967b848a2ba6d0c9ffe8c67000d6d/loader-1.0.0/AndroidManifest.xml:20:5-44
MERGED from [androidx.viewpager:viewpager:1.0.0] /Users/vipin/.gradle/caches/transforms-2/files-2.1/60a8c29995d7a1e286def513defcc189/viewpager-1.0.0/AndroidManifest.xml:20:5-44
MERGED from [androidx.viewpager:viewpager:1.0.0] /Users/vipin/.gradle/caches/transforms-2/files-2.1/60a8c29995d7a1e286def513defcc189/viewpager-1.0.0/AndroidManifest.xml:20:5-44
MERGED from [androidx.coordinatorlayout:coordinatorlayout:1.0.0] /Users/vipin/.gradle/caches/transforms-2/files-2.1/89a138fc971a56f9b402d88b51c7e8bf/coordinatorlayout-1.0.0/AndroidManifest.xml:20:5-44
MERGED from [androidx.coordinatorlayout:coordinatorlayout:1.0.0] /Users/vipin/.gradle/caches/transforms-2/files-2.1/89a138fc971a56f9b402d88b51c7e8bf/coordinatorlayout-1.0.0/AndroidManifest.xml:20:5-44
MERGED from [androidx.drawerlayout:drawerlayout:1.0.0] /Users/vipin/.gradle/caches/transforms-2/files-2.1/4c8c712ad9bc15baa3e528ebdb830be2/drawerlayout-1.0.0/AndroidManifest.xml:20:5-44
MERGED from [androidx.drawerlayout:drawerlayout:1.0.0] /Users/vipin/.gradle/caches/transforms-2/files-2.1/4c8c712ad9bc15baa3e528ebdb830be2/drawerlayout-1.0.0/AndroidManifest.xml:20:5-44
MERGED from [androidx.slidingpanelayout:slidingpanelayout:1.0.0] /Users/vipin/.gradle/caches/transforms-2/files-2.1/4a0c3485acb618ce7da23832b1302029/slidingpanelayout-1.0.0/AndroidManifest.xml:20:5-44
MERGED from [androidx.slidingpanelayout:slidingpanelayout:1.0.0] /Users/vipin/.gradle/caches/transforms-2/files-2.1/4a0c3485acb618ce7da23832b1302029/slidingpanelayout-1.0.0/AndroidManifest.xml:20:5-44
MERGED from [androidx.customview:customview:1.0.0] /Users/vipin/.gradle/caches/transforms-2/files-2.1/2f3f6c49b90c06ec1965670404c2bae1/customview-1.0.0/AndroidManifest.xml:20:5-44
MERGED from [androidx.customview:customview:1.0.0] /Users/vipin/.gradle/caches/transforms-2/files-2.1/2f3f6c49b90c06ec1965670404c2bae1/customview-1.0.0/AndroidManifest.xml:20:5-44
MERGED from [androidx.swiperefreshlayout:swiperefreshlayout:1.0.0] /Users/vipin/.gradle/caches/transforms-2/files-2.1/d4d6006d6dd91185b52b08514ee9b98d/swiperefreshlayout-1.0.0/AndroidManifest.xml:20:5-44
MERGED from [androidx.swiperefreshlayout:swiperefreshlayout:1.0.0] /Users/vipin/.gradle/caches/transforms-2/files-2.1/d4d6006d6dd91185b52b08514ee9b98d/swiperefreshlayout-1.0.0/AndroidManifest.xml:20:5-44
MERGED from [androidx.asynclayoutinflater:asynclayoutinflater:1.0.0] /Users/vipin/.gradle/caches/transforms-2/files-2.1/0daf220a0b0eff5a55113c42c9c09e76/asynclayoutinflater-1.0.0/AndroidManifest.xml:20:5-44
MERGED from [androidx.asynclayoutinflater:asynclayoutinflater:1.0.0] /Users/vipin/.gradle/caches/transforms-2/files-2.1/0daf220a0b0eff5a55113c42c9c09e76/asynclayoutinflater-1.0.0/AndroidManifest.xml:20:5-44
MERGED from [androidx.transition:transition:1.0.0] /Users/vipin/.gradle/caches/transforms-2/files-2.1/c8165a6bff3859a1c1b87abf81bcf9a5/transition-1.0.0/AndroidManifest.xml:20:5-44
MERGED from [androidx.transition:transition:1.0.0] /Users/vipin/.gradle/caches/transforms-2/files-2.1/c8165a6bff3859a1c1b87abf81bcf9a5/transition-1.0.0/AndroidManifest.xml:20:5-44
MERGED from [androidx.vectordrawable:vectordrawable:1.0.0] /Users/vipin/.gradle/caches/transforms-2/files-2.1/6feac16ea6508d2f01adb42b80340360/vectordrawable-1.0.0/AndroidManifest.xml:20:5-44
MERGED from [androidx.vectordrawable:vectordrawable:1.0.0] /Users/vipin/.gradle/caches/transforms-2/files-2.1/6feac16ea6508d2f01adb42b80340360/vectordrawable-1.0.0/AndroidManifest.xml:20:5-44
MERGED from [androidx.media:media:1.0.0] /Users/vipin/.gradle/caches/transforms-2/files-2.1/0e4e94f66a09c9d058953ba46ddb0c9b/media-1.0.0/AndroidManifest.xml:20:5-44
MERGED from [androidx.media:media:1.0.0] /Users/vipin/.gradle/caches/transforms-2/files-2.1/0e4e94f66a09c9d058953ba46ddb0c9b/media-1.0.0/AndroidManifest.xml:20:5-44
MERGED from [androidx.core:core:1.0.0] /Users/vipin/.gradle/caches/transforms-2/files-2.1/2aa311dc82ea7647370b147229745494/core-1.0.0/AndroidManifest.xml:20:5-44
MERGED from [androidx.core:core:1.0.0] /Users/vipin/.gradle/caches/transforms-2/files-2.1/2aa311dc82ea7647370b147229745494/core-1.0.0/AndroidManifest.xml:20:5-44
MERGED from [androidx.lifecycle:lifecycle-runtime:2.0.0] /Users/vipin/.gradle/caches/transforms-2/files-2.1/859953c146c614d0931c571aa4c22726/lifecycle-runtime-2.0.0/AndroidManifest.xml:20:5-44
MERGED from [androidx.lifecycle:lifecycle-runtime:2.0.0] /Users/vipin/.gradle/caches/transforms-2/files-2.1/859953c146c614d0931c571aa4c22726/lifecycle-runtime-2.0.0/AndroidManifest.xml:20:5-44
MERGED from [androidx.lifecycle:lifecycle-livedata:2.0.0] /Users/vipin/.gradle/caches/transforms-2/files-2.1/d2cb8c0b46c5eeeba4aeb3bfc4043dfb/lifecycle-livedata-2.0.0/AndroidManifest.xml:20:5-44
MERGED from [androidx.lifecycle:lifecycle-livedata:2.0.0] /Users/vipin/.gradle/caches/transforms-2/files-2.1/d2cb8c0b46c5eeeba4aeb3bfc4043dfb/lifecycle-livedata-2.0.0/AndroidManifest.xml:20:5-44
MERGED from [androidx.lifecycle:lifecycle-livedata-core:2.0.0] /Users/vipin/.gradle/caches/transforms-2/files-2.1/ed4d6d2218e14061c45322b12c010072/lifecycle-livedata-core-2.0.0/AndroidManifest.xml:20:5-44
MERGED from [androidx.lifecycle:lifecycle-livedata-core:2.0.0] /Users/vipin/.gradle/caches/transforms-2/files-2.1/ed4d6d2218e14061c45322b12c010072/lifecycle-livedata-core-2.0.0/AndroidManifest.xml:20:5-44
MERGED from [androidx.arch.core:core-runtime:2.0.0] /Users/vipin/.gradle/caches/transforms-2/files-2.1/eaf03eb38c93eb768a9e57d424e351e5/core-runtime-2.0.0/AndroidManifest.xml:20:5-44
MERGED from [androidx.arch.core:core-runtime:2.0.0] /Users/vipin/.gradle/caches/transforms-2/files-2.1/eaf03eb38c93eb768a9e57d424e351e5/core-runtime-2.0.0/AndroidManifest.xml:20:5-44
MERGED from [androidx.lifecycle:lifecycle-viewmodel:2.0.0] /Users/vipin/.gradle/caches/transforms-2/files-2.1/b51d234b0c3817c7a6ea458063046cb3/lifecycle-viewmodel-2.0.0/AndroidManifest.xml:20:5-44
MERGED from [androidx.lifecycle:lifecycle-viewmodel:2.0.0] /Users/vipin/.gradle/caches/transforms-2/files-2.1/b51d234b0c3817c7a6ea458063046cb3/lifecycle-viewmodel-2.0.0/AndroidManifest.xml:20:5-44
MERGED from [androidx.versionedparcelable:versionedparcelable:1.0.0] /Users/vipin/.gradle/caches/transforms-2/files-2.1/76176ccfd8049821e053c8a3a177985d/versionedparcelable-1.0.0/AndroidManifest.xml:20:5-44
MERGED from [androidx.versionedparcelable:versionedparcelable:1.0.0] /Users/vipin/.gradle/caches/transforms-2/files-2.1/76176ccfd8049821e053c8a3a177985d/versionedparcelable-1.0.0/AndroidManifest.xml:20:5-44
MERGED from [androidx.interpolator:interpolator:1.0.0] /Users/vipin/.gradle/caches/transforms-2/files-2.1/83f2d6c1f6c7fbe04662fdfc840f16c9/interpolator-1.0.0/AndroidManifest.xml:20:5-44
MERGED from [androidx.interpolator:interpolator:1.0.0] /Users/vipin/.gradle/caches/transforms-2/files-2.1/83f2d6c1f6c7fbe04662fdfc840f16c9/interpolator-1.0.0/AndroidManifest.xml:20:5-44
MERGED from [androidx.cursoradapter:cursoradapter:1.0.0] /Users/vipin/.gradle/caches/transforms-2/files-2.1/ff47048877db12bd271c96d7e9087138/cursoradapter-1.0.0/AndroidManifest.xml:20:5-44
MERGED from [androidx.cursoradapter:cursoradapter:1.0.0] /Users/vipin/.gradle/caches/transforms-2/files-2.1/ff47048877db12bd271c96d7e9087138/cursoradapter-1.0.0/AndroidManifest.xml:20:5-44
MERGED from [androidx.documentfile:documentfile:1.0.0] /Users/vipin/.gradle/caches/transforms-2/files-2.1/5855efd38be8431bbd879efa7618a00c/documentfile-1.0.0/AndroidManifest.xml:20:5-44
MERGED from [androidx.documentfile:documentfile:1.0.0] /Users/vipin/.gradle/caches/transforms-2/files-2.1/5855efd38be8431bbd879efa7618a00c/documentfile-1.0.0/AndroidManifest.xml:20:5-44
MERGED from [androidx.localbroadcastmanager:localbroadcastmanager:1.0.0] /Users/vipin/.gradle/caches/transforms-2/files-2.1/8dc0cff161db3c3e6bfc27bcf3557414/localbroadcastmanager-1.0.0/AndroidManifest.xml:20:5-44
MERGED from [androidx.localbroadcastmanager:localbroadcastmanager:1.0.0] /Users/vipin/.gradle/caches/transforms-2/files-2.1/8dc0cff161db3c3e6bfc27bcf3557414/localbroadcastmanager-1.0.0/AndroidManifest.xml:20:5-44
MERGED from [androidx.print:print:1.0.0] /Users/vipin/.gradle/caches/transforms-2/files-2.1/32d0c7709c6fc4ea4aeee5a301769a1c/print-1.0.0/AndroidManifest.xml:20:5-44
MERGED from [androidx.print:print:1.0.0] /Users/vipin/.gradle/caches/transforms-2/files-2.1/32d0c7709c6fc4ea4aeee5a301769a1c/print-1.0.0/AndroidManifest.xml:20:5-44
MERGED from [androidx.cardview:cardview:1.0.0] /Users/vipin/.gradle/caches/transforms-2/files-2.1/c52fde5cb7ba62eb3a53f6539b099bc7/cardview-1.0.0/AndroidManifest.xml:20:5-44
MERGED from [androidx.cardview:cardview:1.0.0] /Users/vipin/.gradle/caches/transforms-2/files-2.1/c52fde5cb7ba62eb3a53f6539b099bc7/cardview-1.0.0/AndroidManifest.xml:20:5-44
INJECTED from /Users/vipin/Desktop/flutter_learn/android/app/src/debug/AndroidManifest.xml
INJECTED from /Users/vipin/Desktop/flutter_learn/android/app/src/debug/AndroidManifest.xml
	android:targetSdkVersion
		INJECTED from /Users/vipin/Desktop/flutter_learn/android/app/src/main/AndroidManifest.xml
		INJECTED from /Users/vipin/Desktop/flutter_learn/android/app/src/debug/AndroidManifest.xml
	android:minSdkVersion
		INJECTED from /Users/vipin/Desktop/flutter_learn/android/app/src/main/AndroidManifest.xml
		INJECTED from /Users/vipin/Desktop/flutter_learn/android/app/src/debug/AndroidManifest.xml
uses-permission#android.permission.INTERNET
ADDED from /Users/vipin/Desktop/flutter_learn/android/app/src/debug/AndroidManifest.xml:6:5-66
MERGED from [com.google.android.gms:play-services-maps:17.0.0] /Users/vipin/.gradle/caches/transforms-2/files-2.1/3222ebe8836b17d01ef99448d34abe13/play-services-maps-17.0.0/AndroidManifest.xml:24:5-67
MERGED from [com.google.android.gms:play-services-maps:17.0.0] /Users/vipin/.gradle/caches/transforms-2/files-2.1/3222ebe8836b17d01ef99448d34abe13/play-services-maps-17.0.0/AndroidManifest.xml:24:5-67
	android:name
		ADDED from /Users/vipin/Desktop/flutter_learn/android/app/src/debug/AndroidManifest.xml:6:22-64
meta-data#com.google.android.gms.wallet.api.enabled
ADDED from [:stripe_payment] /Users/vipin/Desktop/flutter_learn/build/stripe_payment/intermediates/library_manifest/debug/AndroidManifest.xml:12:9-14:36
	android:value
		ADDED from [:stripe_payment] /Users/vipin/Desktop/flutter_learn/build/stripe_payment/intermediates/library_manifest/debug/AndroidManifest.xml:14:13-33
	android:name
		ADDED from [:stripe_payment] /Users/vipin/Desktop/flutter_learn/build/stripe_payment/intermediates/library_manifest/debug/AndroidManifest.xml:13:13-69
activity#com.gettipsi.stripe.OpenBrowserActivity
ADDED from [:stripe_payment] /Users/vipin/Desktop/flutter_learn/build/stripe_payment/intermediates/library_manifest/debug/AndroidManifest.xml:16:9-20:75
	android:launchMode
		ADDED from [:stripe_payment] /Users/vipin/Desktop/flutter_learn/build/stripe_payment/intermediates/library_manifest/debug/AndroidManifest.xml:19:13-44
	android:exported
		ADDED from [:stripe_payment] /Users/vipin/Desktop/flutter_learn/build/stripe_payment/intermediates/library_manifest/debug/AndroidManifest.xml:18:13-37
	android:theme
		ADDED from [:stripe_payment] /Users/vipin/Desktop/flutter_learn/build/stripe_payment/intermediates/library_manifest/debug/AndroidManifest.xml:20:13-72
	android:name
		ADDED from [:stripe_payment] /Users/vipin/Desktop/flutter_learn/build/stripe_payment/intermediates/library_manifest/debug/AndroidManifest.xml:17:13-67
activity#com.gettipsi.stripe.RedirectUriReceiver
ADDED from [:stripe_payment] /Users/vipin/Desktop/flutter_learn/build/stripe_payment/intermediates/library_manifest/debug/AndroidManifest.xml:21:9-34:20
	android:launchMode
		ADDED from [:stripe_payment] /Users/vipin/Desktop/flutter_learn/build/stripe_payment/intermediates/library_manifest/debug/AndroidManifest.xml:24:13-44
	android:exported
		ADDED from [:stripe_payment] /Users/vipin/Desktop/flutter_learn/build/stripe_payment/intermediates/library_manifest/debug/AndroidManifest.xml:23:13-36
	android:theme
		ADDED from [:stripe_payment] /Users/vipin/Desktop/flutter_learn/build/stripe_payment/intermediates/library_manifest/debug/AndroidManifest.xml:25:13-83
	android:name
		ADDED from [:stripe_payment] /Users/vipin/Desktop/flutter_learn/build/stripe_payment/intermediates/library_manifest/debug/AndroidManifest.xml:22:13-67
intent-filter#action:name:android.intent.action.VIEW+category:name:android.intent.category.BROWSABLE+category:name:android.intent.category.DEFAULT+data:scheme:example
ADDED from [:stripe_payment] /Users/vipin/Desktop/flutter_learn/build/stripe_payment/intermediates/library_manifest/debug/AndroidManifest.xml:26:13-33:29
action#android.intent.action.VIEW
ADDED from [:stripe_payment] /Users/vipin/Desktop/flutter_learn/build/stripe_payment/intermediates/library_manifest/debug/AndroidManifest.xml:27:17-69
	android:name
		ADDED from [:stripe_payment] /Users/vipin/Desktop/flutter_learn/build/stripe_payment/intermediates/library_manifest/debug/AndroidManifest.xml:27:25-66
category#android.intent.category.DEFAULT
ADDED from [:stripe_payment] /Users/vipin/Desktop/flutter_learn/build/stripe_payment/intermediates/library_manifest/debug/AndroidManifest.xml:29:17-76
	android:name
		ADDED from [:stripe_payment] /Users/vipin/Desktop/flutter_learn/build/stripe_payment/intermediates/library_manifest/debug/AndroidManifest.xml:29:27-73
category#android.intent.category.BROWSABLE
ADDED from [:stripe_payment] /Users/vipin/Desktop/flutter_learn/build/stripe_payment/intermediates/library_manifest/debug/AndroidManifest.xml:30:17-78
	android:name
		ADDED from [:stripe_payment] /Users/vipin/Desktop/flutter_learn/build/stripe_payment/intermediates/library_manifest/debug/AndroidManifest.xml:30:27-75
data
ADDED from [:stripe_payment] /Users/vipin/Desktop/flutter_learn/build/stripe_payment/intermediates/library_manifest/debug/AndroidManifest.xml:32:17-50
	android:scheme
		ADDED from [:stripe_payment] /Users/vipin/Desktop/flutter_learn/build/stripe_payment/intermediates/library_manifest/debug/AndroidManifest.xml:32:23-47
activity#com.stripe.android.view.AddPaymentMethodActivity
ADDED from [com.stripe:stripe-android:10.4.6] /Users/vipin/.gradle/caches/transforms-2/files-2.1/d3489a11b37f27d876ab42ce66142190/jetified-stripe-android-10.4.6/AndroidManifest.xml:12:9-14:57
	android:theme
		ADDED from [com.stripe:stripe-android:10.4.6] /Users/vipin/.gradle/caches/transforms-2/files-2.1/d3489a11b37f27d876ab42ce66142190/jetified-stripe-android-10.4.6/AndroidManifest.xml:14:13-54
	android:name
		ADDED from [com.stripe:stripe-android:10.4.6] /Users/vipin/.gradle/caches/transforms-2/files-2.1/d3489a11b37f27d876ab42ce66142190/jetified-stripe-android-10.4.6/AndroidManifest.xml:13:13-76
activity#com.stripe.android.view.PaymentMethodsActivity
ADDED from [com.stripe:stripe-android:10.4.6] /Users/vipin/.gradle/caches/transforms-2/files-2.1/d3489a11b37f27d876ab42ce66142190/jetified-stripe-android-10.4.6/AndroidManifest.xml:15:9-17:57
	android:theme
		ADDED from [com.stripe:stripe-android:10.4.6] /Users/vipin/.gradle/caches/transforms-2/files-2.1/d3489a11b37f27d876ab42ce66142190/jetified-stripe-android-10.4.6/AndroidManifest.xml:17:13-54
	android:name
		ADDED from [com.stripe:stripe-android:10.4.6] /Users/vipin/.gradle/caches/transforms-2/files-2.1/d3489a11b37f27d876ab42ce66142190/jetified-stripe-android-10.4.6/AndroidManifest.xml:16:13-74
activity#com.stripe.android.view.PaymentFlowActivity
ADDED from [com.stripe:stripe-android:10.4.6] /Users/vipin/.gradle/caches/transforms-2/files-2.1/d3489a11b37f27d876ab42ce66142190/jetified-stripe-android-10.4.6/AndroidManifest.xml:18:9-20:57
	android:theme
		ADDED from [com.stripe:stripe-android:10.4.6] /Users/vipin/.gradle/caches/transforms-2/files-2.1/d3489a11b37f27d876ab42ce66142190/jetified-stripe-android-10.4.6/AndroidManifest.xml:20:13-54
	android:name
		ADDED from [com.stripe:stripe-android:10.4.6] /Users/vipin/.gradle/caches/transforms-2/files-2.1/d3489a11b37f27d876ab42ce66142190/jetified-stripe-android-10.4.6/AndroidManifest.xml:19:13-71
activity#com.stripe.android.view.PaymentAuthWebViewActivity
ADDED from [com.stripe:stripe-android:10.4.6] /Users/vipin/.gradle/caches/transforms-2/files-2.1/d3489a11b37f27d876ab42ce66142190/jetified-stripe-android-10.4.6/AndroidManifest.xml:21:9-23:57
	android:theme
		ADDED from [com.stripe:stripe-android:10.4.6] /Users/vipin/.gradle/caches/transforms-2/files-2.1/d3489a11b37f27d876ab42ce66142190/jetified-stripe-android-10.4.6/AndroidManifest.xml:23:13-54
	android:name
		ADDED from [com.stripe:stripe-android:10.4.6] /Users/vipin/.gradle/caches/transforms-2/files-2.1/d3489a11b37f27d876ab42ce66142190/jetified-stripe-android-10.4.6/AndroidManifest.xml:22:13-78
activity#com.stripe.android.view.PaymentRelayActivity
ADDED from [com.stripe:stripe-android:10.4.6] /Users/vipin/.gradle/caches/transforms-2/files-2.1/d3489a11b37f27d876ab42ce66142190/jetified-stripe-android-10.4.6/AndroidManifest.xml:24:9-26:57
	android:theme
		ADDED from [com.stripe:stripe-android:10.4.6] /Users/vipin/.gradle/caches/transforms-2/files-2.1/d3489a11b37f27d876ab42ce66142190/jetified-stripe-android-10.4.6/AndroidManifest.xml:26:13-54
	android:name
		ADDED from [com.stripe:stripe-android:10.4.6] /Users/vipin/.gradle/caches/transforms-2/files-2.1/d3489a11b37f27d876ab42ce66142190/jetified-stripe-android-10.4.6/AndroidManifest.xml:25:13-72
activity#com.stripe.android.stripe3ds2.views.ChallengeActivity
ADDED from [com.stripe:stripe-3ds2-android:1.2.2] /Users/vipin/.gradle/caches/transforms-2/files-2.1/927fe1aa15fe553a42c71406e1f2654d/jetified-stripe-3ds2-android-1.2.2/AndroidManifest.xml:12:9-14:54
	android:theme
		ADDED from [com.stripe:stripe-3ds2-android:1.2.2] /Users/vipin/.gradle/caches/transforms-2/files-2.1/927fe1aa15fe553a42c71406e1f2654d/jetified-stripe-3ds2-android-1.2.2/AndroidManifest.xml:14:13-51
	android:name
		ADDED from [com.stripe:stripe-3ds2-android:1.2.2] /Users/vipin/.gradle/caches/transforms-2/files-2.1/927fe1aa15fe553a42c71406e1f2654d/jetified-stripe-3ds2-android-1.2.2/AndroidManifest.xml:13:13-81
activity#com.stripe.android.stripe3ds2.views.ChallengeProgressDialogActivity
ADDED from [com.stripe:stripe-3ds2-android:1.2.2] /Users/vipin/.gradle/caches/transforms-2/files-2.1/927fe1aa15fe553a42c71406e1f2654d/jetified-stripe-3ds2-android-1.2.2/AndroidManifest.xml:15:9-17:54
	android:theme
		ADDED from [com.stripe:stripe-3ds2-android:1.2.2] /Users/vipin/.gradle/caches/transforms-2/files-2.1/927fe1aa15fe553a42c71406e1f2654d/jetified-stripe-3ds2-android-1.2.2/AndroidManifest.xml:17:13-51
	android:name
		ADDED from [com.stripe:stripe-3ds2-android:1.2.2] /Users/vipin/.gradle/caches/transforms-2/files-2.1/927fe1aa15fe553a42c71406e1f2654d/jetified-stripe-3ds2-android-1.2.2/AndroidManifest.xml:16:13-95
uses-permission#android.permission.ACCESS_NETWORK_STATE
ADDED from [com.google.android.gms:play-services-maps:17.0.0] /Users/vipin/.gradle/caches/transforms-2/files-2.1/3222ebe8836b17d01ef99448d34abe13/play-services-maps-17.0.0/AndroidManifest.xml:23:5-79
	android:name
		ADDED from [com.google.android.gms:play-services-maps:17.0.0] /Users/vipin/.gradle/caches/transforms-2/files-2.1/3222ebe8836b17d01ef99448d34abe13/play-services-maps-17.0.0/AndroidManifest.xml:23:22-76
uses-feature#0x00020000
ADDED from [com.google.android.gms:play-services-maps:17.0.0] /Users/vipin/.gradle/caches/transforms-2/files-2.1/3222ebe8836b17d01ef99448d34abe13/play-services-maps-17.0.0/AndroidManifest.xml:26:5-28:35
	android:glEsVersion
		ADDED from [com.google.android.gms:play-services-maps:17.0.0] /Users/vipin/.gradle/caches/transforms-2/files-2.1/3222ebe8836b17d01ef99448d34abe13/play-services-maps-17.0.0/AndroidManifest.xml:27:9-41
	android:required
		ADDED from [com.google.android.gms:play-services-maps:17.0.0] /Users/vipin/.gradle/caches/transforms-2/files-2.1/3222ebe8836b17d01ef99448d34abe13/play-services-maps-17.0.0/AndroidManifest.xml:28:9-32
uses-library#org.apache.http.legacy
ADDED from [com.google.android.gms:play-services-maps:17.0.0] /Users/vipin/.gradle/caches/transforms-2/files-2.1/3222ebe8836b17d01ef99448d34abe13/play-services-maps-17.0.0/AndroidManifest.xml:33:9-35:40
	android:required
		ADDED from [com.google.android.gms:play-services-maps:17.0.0] /Users/vipin/.gradle/caches/transforms-2/files-2.1/3222ebe8836b17d01ef99448d34abe13/play-services-maps-17.0.0/AndroidManifest.xml:35:13-37
	android:name
		ADDED from [com.google.android.gms:play-services-maps:17.0.0] /Users/vipin/.gradle/caches/transforms-2/files-2.1/3222ebe8836b17d01ef99448d34abe13/play-services-maps-17.0.0/AndroidManifest.xml:34:13-50
activity#com.google.android.gms.common.api.GoogleApiActivity
ADDED from [com.google.android.gms:play-services-base:17.0.0] /Users/vipin/.gradle/caches/transforms-2/files-2.1/0425523a70139e6e81278079e95f0525/play-services-base-17.0.0/AndroidManifest.xml:23:9-26:75
	android:exported
		ADDED from [com.google.android.gms:play-services-base:17.0.0] /Users/vipin/.gradle/caches/transforms-2/files-2.1/0425523a70139e6e81278079e95f0525/play-services-base-17.0.0/AndroidManifest.xml:25:13-37
	android:theme
		ADDED from [com.google.android.gms:play-services-base:17.0.0] /Users/vipin/.gradle/caches/transforms-2/files-2.1/0425523a70139e6e81278079e95f0525/play-services-base-17.0.0/AndroidManifest.xml:26:13-72
	android:name
		ADDED from [com.google.android.gms:play-services-base:17.0.0] /Users/vipin/.gradle/caches/transforms-2/files-2.1/0425523a70139e6e81278079e95f0525/play-services-base-17.0.0/AndroidManifest.xml:24:13-79
meta-data#com.google.android.gms.version
ADDED from [com.google.android.gms:play-services-basement:17.0.0] /Users/vipin/.gradle/caches/transforms-2/files-2.1/3b683f24432fc6c472db00a16e4befbb/jetified-play-services-basement-17.0.0/AndroidManifest.xml:23:9-25:69
	android:value
		ADDED from [com.google.android.gms:play-services-basement:17.0.0] /Users/vipin/.gradle/caches/transforms-2/files-2.1/3b683f24432fc6c472db00a16e4befbb/jetified-play-services-basement-17.0.0/AndroidManifest.xml:25:13-66
	android:name
		ADDED from [com.google.android.gms:play-services-basement:17.0.0] /Users/vipin/.gradle/caches/transforms-2/files-2.1/3b683f24432fc6c472db00a16e4befbb/jetified-play-services-basement-17.0.0/AndroidManifest.xml:24:13-58
